Data programming
…
datos |>
  filtro(condicion)

starwars |>
  filter(condition)

How would you go about… filter the characters with brown eyes?

What kind of variable is it? –> The variable eye_color is qualitative so it is represented by texts. . . .

starwars |>
  filter(eye_color == "brown")

# A tibble: 21 × 14
   name     height  mass hair_color skin_color eye_color birth_year sex   gender
   <chr>     <int> <dbl> <chr>      <chr>      <chr>          <dbl> <chr> <chr> 
 1 Leia Or…    150  49   brown      light      brown           19   fema… femin…
 2 Biggs D…    183  84   black      light      brown           24   male  mascu…
 3 Han Solo    180  80   brown      fair       brown           29   male  mascu…
 4 Yoda         66  17   white      green      brown          896   male  mascu…
 5 Boba Fe…    183  78.2 black      fair       brown           31.5 male  mascu…
 6 Lando C…    177  79   black      dark       brown           31   male  mascu…
 7 Arvel C…     NA  NA   brown      fair       brown           NA   male  mascu…
 8 Wicket …     88  20   brown      brown      brown            8   male  mascu…
 9 Quarsh …    183  NA   black      dark       brown           62   <NA>  <NA>  
10 Shmi Sk…    163  NA   black      fair       brown           72   fema… femin…
# ℹ 11 more rows
# ℹ 5 more variables: homeworld <chr>, species <chr>, films <list>,
#   vehicles <list>, starships <list>

Filtering: filter()

datos |>
  filtro(condicion)

starwars |>
  filter(condition)

How would you go about… filter the characters without brown eyes?

starwars |>
  filter(eye_color != "brown")

# A tibble: 66 × 14
   name     height  mass hair_color skin_color eye_color birth_year sex   gender
   <chr>     <int> <dbl> <chr>      <chr>      <chr>          <dbl> <chr> <chr> 
 1 Luke Sk…    172    77 blond      fair       blue            19   male  mascu…
 2 C-3PO       167    75 <NA>       gold       yellow         112   none  mascu…
 3 R2-D2        96    32 <NA>       white, bl… red             33   none  mascu…
 4 Darth V…    202   136 none       white      yellow          41.9 male  mascu…
 5 Owen La…    178   120 brown, gr… light      blue            52   male  mascu…
 6 Beru Wh…    165    75 brown      light      blue            47   fema… femin…
 7 R5-D4        97    32 <NA>       white, red red             NA   none  mascu…
 8 Obi-Wan…    182    77 auburn, w… fair       blue-gray       57   male  mascu…
 9 Anakin …    188    84 blond      fair       blue            41.9 male  mascu…
10 Wilhuff…    180    NA auburn, g… fair       blue            64   male  mascu…
# ℹ 56 more rows
# ℹ 5 more variables: homeworld <chr>, species <chr>, films <list>,
#   vehicles <list>, starships <list>

Filtering: filter()

datos |>
  filtro(condicion)

starwars |>
  filter(condition)

How would you go about… filter the characters with brown or blue eyes? . . .

starwars |>
  filter(eye_color %in% c("blue", "brown"))

# A tibble: 40 × 14
   name     height  mass hair_color skin_color eye_color birth_year sex   gender
   <chr>     <int> <dbl> <chr>      <chr>      <chr>          <dbl> <chr> <chr> 
 1 Luke Sk…    172    77 blond      fair       blue            19   male  mascu…
 2 Leia Or…    150    49 brown      light      brown           19   fema… femin…
 3 Owen La…    178   120 brown, gr… light      blue            52   male  mascu…
 4 Beru Wh…    165    75 brown      light      blue            47   fema… femin…
 5 Biggs D…    183    84 black      light      brown           24   male  mascu…
 6 Anakin …    188    84 blond      fair       blue            41.9 male  mascu…
 7 Wilhuff…    180    NA auburn, g… fair       blue            64   male  mascu…
 8 Chewbac…    228   112 brown      unknown    blue           200   male  mascu…
 9 Han Solo    180    80 brown      fair       brown           29   male  mascu…
10 Jek Ton…    180   110 brown      fair       blue            NA   male  mascu…
# ℹ 30 more rows
# ℹ 5 more variables: homeworld <chr>, species <chr>, films <list>,
#   vehicles <list>, starships <list>

Filtering: filter()

datos |>
  filtro(condicion)

starwars |>
  filter(condition)

Note that %in% is equivalent to concatenating several == with a conjunction or (|)

starwars |>
  filter(eye_color == "blue" | eye_color == "brown")

# A tibble: 40 × 14
   name     height  mass hair_color skin_color eye_color birth_year sex   gender
   <chr>     <int> <dbl> <chr>      <chr>      <chr>          <dbl> <chr> <chr> 
 1 Luke Sk…    172    77 blond      fair       blue            19   male  mascu…
 2 Leia Or…    150    49 brown      light      brown           19   fema… femin…
 3 Owen La…    178   120 brown, gr… light      blue            52   male  mascu…
 4 Beru Wh…    165    75 brown      light      blue            47   fema… femin…
 5 Biggs D…    183    84 black      light      brown           24   male  mascu…
 6 Anakin …    188    84 blond      fair       blue            41.9 male  mascu…
 7 Wilhuff…    180    NA auburn, g… fair       blue            64   male  mascu…
 8 Chewbac…    228   112 brown      unknown    blue           200   male  mascu…
 9 Han Solo    180    80 brown      fair       brown           29   male  mascu…
10 Jek Ton…    180   110 brown      fair       blue            NA   male  mascu…
# ℹ 30 more rows
# ℹ 5 more variables: homeworld <chr>, species <chr>, films <list>,
#   vehicles <list>, starships <list>
…
