Data programming
…
datos |>
  filtro(condicion)

starwars |>
  filter(condition)

How would you go about… filter the characters with brown eyes?

What kind of variable is it? –> The variable eye_color is qualitative so it is represented by texts. . . .

starwars |>
  filter(eye_color == "brown")

# A tibble: 21 × 14
   name     height  mass hair_color skin_color eye_color birth_year sex   gender
   <chr>     <int> <dbl> <chr>      <chr>      <chr>          <dbl> <chr> <chr> 
 1 Leia Or…    150  49   brown      light      brown           19   fema… femin…
 2 Biggs D…    183  84   black      light      brown           24   male  mascu…
 3 Han Solo    180  80   brown      fair       brown           29   male  mascu…
 4 Yoda         66  17   white      green      brown          896   male  mascu…
 5 Boba Fe…    183  78.2 black      fair       brown           31.5 male  mascu…
 6 Lando C…    177  79   black      dark       brown           31   male  mascu…
 7 Arvel C…     NA  NA   brown      fair       brown           NA   male  mascu…
 8 Wicket …     88  20   brown      brown      brown            8   male  mascu…
 9 Quarsh …    183  NA   black      dark       brown           62   <NA>  <NA>  
10 Shmi Sk…    163  NA   black      fair       brown           72   fema… femin…
# ℹ 11 more rows
# ℹ 5 more variables: homeworld <chr>, species <chr>, films <list>,
#   vehicles <list>, starships <list>

Filtering: filter()

datos |>
  filtro(condicion)

starwars |>
  filter(condition)

How would you go about… filter the characters without brown eyes?

starwars |>
  filter(eye_color != "brown")

# A tibble: 66 × 14
   name     height  mass hair_color skin_color eye_color birth_year sex   gender
   <chr>     <int> <dbl> <chr>      <chr>      <chr>          <dbl> <chr> <chr> 
 1 Luke Sk…    172    77 blond      fair       blue            19   male  mascu…
 2 C-3PO       167    75 <NA>       gold       yellow         112   none  mascu…
 3 R2-D2        96    32 <NA>       white, bl… red             33   none  mascu…
 4 Darth V…    202   136 none       white      yellow          41.9 male  mascu…
 5 Owen La…    178   120 brown, gr… light      blue            52   male  mascu…
 6 Beru Wh…    165    75 brown      light      blue            47   fema… femin…
 7 R5-D4        97    32 <NA>       white, red red             NA   none  mascu…
 8 Obi-Wan…    182    77 auburn, w… fair       blue-gray       57   male  mascu…
 9 Anakin …    188    84 blond      fair       blue            41.9 male  mascu…
10 Wilhuff…    180    NA auburn, g… fair       blue            64   male  mascu…
# ℹ 56 more rows
# ℹ 5 more variables: homeworld <chr>, species <chr>, films <list>,
#   vehicles <list>, starships <list>

Filtering: filter()

datos |>
  filtro(condicion)

starwars |>
  filter(condition)

How would you go about… filter the characters with brown or blue eyes? . . .

starwars |>
  filter(eye_color %in% c("blue", "brown"))

# A tibble: 40 × 14
   name     height  mass hair_color skin_color eye_color birth_year sex   gender
   <chr>     <int> <dbl> <chr>      <chr>      <chr>          <dbl> <chr> <chr> 
 1 Luke Sk…    172    77 blond      fair       blue            19   male  mascu…
 2 Leia Or…    150    49 brown      light      brown           19   fema… femin…
 3 Owen La…    178   120 brown, gr… light      blue            52   male  mascu…
 4 Beru Wh…    165    75 brown      light      blue            47   fema… femin…
 5 Biggs D…    183    84 black      light      brown           24   male  mascu…
 6 Anakin …    188    84 blond      fair       blue            41.9 male  mascu…
 7 Wilhuff…    180    NA auburn, g… fair       blue            64   male  mascu…
 8 Chewbac…    228   112 brown      unknown    blue           200   male  mascu…
 9 Han Solo    180    80 brown      fair       brown           29   male  mascu…
10 Jek Ton…    180   110 brown      fair       blue            NA   male  mascu…
# ℹ 30 more rows
# ℹ 5 more variables: homeworld <chr>, species <chr>, films <list>,
#   vehicles <list>, starships <list>

Filtering: filter()

datos |>
  filtro(condicion)

starwars |>
  filter(condition)

Note that %in% is equivalent to concatenating several == with a conjunction or (|)

starwars |>
  filter(eye_color == "blue" | eye_color == "brown")

# A tibble: 40 × 14
   name     height  mass hair_color skin_color eye_color birth_year sex   gender
   <chr>     <int> <dbl> <chr>      <chr>      <chr>          <dbl> <chr> <chr> 
 1 Luke Sk…    172    77 blond      fair       blue            19   male  mascu…
 2 Leia Or…    150    49 brown      light      brown           19   fema… femin…
 3 Owen La…    178   120 brown, gr… light      blue            52   male  mascu…
 4 Beru Wh…    165    75 brown      light      blue            47   fema… femin…
 5 Biggs D…    183    84 black      light      brown           24   male  mascu…
 6 Anakin …    188    84 blond      fair       blue            41.9 male  mascu…
 7 Wilhuff…    180    NA auburn, g… fair       blue            64   male  mascu…
 8 Chewbac…    228   112 brown      unknown    blue           200   male  mascu…
 9 Han Solo    180    80 brown      fair       brown           29   male  mascu…
10 Jek Ton…    180   110 brown      fair       blue            NA   male  mascu…
# ℹ 30 more rows
# ℹ 5 more variables: homeworld <chr>, species <chr>, films <list>,
#   vehicles <list>, starships <list>
…
Lesson 4: tidyverse (columns)

Handling data by columns

Select columns: select()

datos |> selecciono(var1, var2, ...)

starwars |> select(var1, var2, ...)

The simplest option for selecting variables by name is using select(), as arguments the column names without quotes.

starwars |> select(name, hair_color)

# A tibble: 87 × 2
   name               hair_color   
   <chr>              <chr>        
 1 Luke Skywalker     blond        
 2 C-3PO              <NA>         
 3 R2-D2              <NA>         
 4 Darth Vader        none         
 5 Leia Organa        brown        
 6 Owen Lars          brown, grey  
 7 Beru Whitesun lars brown        
 8 R5-D4              <NA>         
 9 Biggs Darklighter  black        
10 Obi-Wan Kenobi     auburn, white
# ℹ 77 more rows
…
Select columns: select()

datos |> selecciono(var1, var2, ...)

starwars |> select(var1, var2, ...)

We can also find patterns in the name, those that begin with a prefix (starts_with()), [end with a suffix]{. hl-purple} (ends_with()), contain text (contains()) or fulfill a regular expression (matches()).

starwars |> select(ends_with("color"), matches("sex|gender"))

# A tibble: 87 × 5
   hair_color    skin_color  eye_color sex    gender   
   <chr>         <chr>       <chr>     <chr>  <chr>    
 1 blond         fair        blue      male   masculine
 2 <NA>          gold        yellow    none   masculine
 3 <NA>          white, blue red       none   masculine
 4 none          white       yellow    male   masculine
 5 brown         light       brown     female feminine 
 6 brown, grey   light       blue      male   masculine
 7 brown         light       blue      female feminine 
 8 <NA>          white, red  red       none   masculine
 9 black         light       brown     male   masculine
10 auburn, white fair        blue-gray male   masculine
# ℹ 77 more rows
…
Select columns: select()

datos |> selecciono(var1, var2, ...)

starwars |> select(var1, var2, ...)

Finally, we can select columns by datatatype using where() and inside a function that returns a logical value of datatype.

# Just numeric or string columns
starwars |> select(where(is.numeric) | where(is.character))

# A tibble: 87 × 11
   height  mass birth_year name     hair_color skin_color eye_color sex   gender
    <int> <dbl>      <dbl> <chr>    <chr>      <chr>      <chr>     <chr> <chr> 
 1    172    77       19   Luke Sk… blond      fair       blue      male  mascu…
 2    167    75      112   C-3PO    <NA>       gold       yellow    none  mascu…
 3     96    32       33   R2-D2    <NA>       white, bl… red       none  mascu…
 4    202   136       41.9 Darth V… none       white      yellow    male  mascu…
 5    150    49       19   Leia Or… brown      light      brown     fema… femin…
 6    178   120       52   Owen La… brown, gr… light      blue      male  mascu…
 7    165    75       47   Beru Wh… brown      light      blue      fema… femin…
 8     97    32       NA   R5-D4    <NA>       white, red red       none  mascu…
 9    183    84       24   Biggs D… black      light      brown     male  mascu…
10    182    77       57   Obi-Wan… auburn, w… fair       blue-gray male  mascu…
# ℹ 77 more rows
# ℹ 2 more variables: homeworld <chr>, species <chr>

Relocate columns: relocate()

datos |>
  recolocar(var1, despues_de = var2)

starwars |>
  relocate(var1, .after = var2)

To facilitate the relocation of variables we have a function for it, relocate(), indicating in .after or .before behind or in front of which columns we want to move them.

starwars |> relocate(species, .before = name)

# A tibble: 87 × 14
   species name    height  mass hair_color skin_color eye_color birth_year sex  
   <chr>   <chr>    <int> <dbl> <chr>      <chr>      <chr>          <dbl> <chr>
 1 Human   Luke S…    172    77 blond      fair       blue            19   male 
 2 Droid   C-3PO      167    75 <NA>       gold       yellow         112   none 
 3 Droid   R2-D2       96    32 <NA>       white, bl… red             33   none 
 4 Human   Darth …    202   136 none       white      yellow          41.9 male 
 5 Human   Leia O…    150    49 brown      light      brown           19   fema…
 6 Human   Owen L…    178   120 brown, gr… light      blue            52   male 
 7 Human   Beru W…    165    75 brown      light      blue            47   fema…
 8 Droid   R5-D4       97    32 <NA>       white, red red             NA   none 
 9 Human   Biggs …    183    84 black      light      brown           24   male 
10 Human   Obi-Wa…    182    77 auburn, w… fair       blue-gray       57   male 
# ℹ 77 more rows
# ℹ 5 more variables: gender <chr>, homeworld <chr>, films <list>,
#   vehicles <list>, starships <list>

Rename columns: rename()

datos |> renombrar(nuevo = antiguo)

starwars |> rename(new = old)

Sometimes we may also want to modify the “meta-information” of the data, renaming columns. To do this we will use rename() by putting first the new name and then the old.

starwars |> rename(nombre = name, altura = height, peso = mass)

# A tibble: 87 × 14
   nombre   altura  peso hair_color skin_color eye_color birth_year sex   gender
   <chr>     <int> <dbl> <chr>      <chr>      <chr>          <dbl> <chr> <chr> 
 1 Luke Sk…    172    77 blond      fair       blue            19   male  mascu…
 2 C-3PO       167    75 <NA>       gold       yellow         112   none  mascu…
 3 R2-D2        96    32 <NA>       white, bl… red             33   none  mascu…
 4 Darth V…    202   136 none       white      yellow          41.9 male  mascu…
 5 Leia Or…    150    49 brown      light      brown           19   fema… femin…
 6 Owen La…    178   120 brown, gr… light      blue            52   male  mascu…
 7 Beru Wh…    165    75 brown      light      blue            47   fema… femin…
 8 R5-D4        97    32 <NA>       white, red red             NA   none  mascu…
 9 Biggs D…    183    84 black      light      brown           24   male  mascu…
10 Obi-Wan…    182    77 auburn, w… fair       blue-gray       57   male  mascu…
# ℹ 77 more rows
# ℹ 5 more variables: homeworld <chr>, species <chr>, films <list>,
#   vehicles <list>, starships <list>

Extract columns: pull()

datos |> retirar(var)

starwars |> pull(var)

If you look at the output of the select() it is still a tibble table, as it preserves the nature of our data.

starwars |> select(name)

# A tibble: 87 × 1
   name              
   <chr>             
 1 Luke Skywalker    
 2 C-3PO             
 3 R2-D2             
 4 Darth Vader       
 5 Leia Organa       
 6 Owen Lars         
 7 Beru Whitesun lars
 8 R5-D4             
 9 Biggs Darklighter 
10 Obi-Wan Kenobi    
# ℹ 77 more rows
…
📝 From the original data set, it removes the list type columns, and then removes duplicates in the eye_color variable. After removing duplicates it extracts that column into a vector.

Modify columns: mutate()

datos |> modificar(nueva = funcion())

starwars |> mutate(new = function())

In many occasions we will want to modify or create variables with mutate().

Let’s create for example a new variable height_m with the height in meters.

starwars |> mutate(height_m = height / 100)

# A tibble: 87 × 15
   name     height  mass hair_color skin_color eye_color birth_year sex   gender
   <chr>     <int> <dbl> <chr>      <chr>      <chr>          <dbl> <chr> <chr> 
 1 Luke Sk…    172    77 blond      fair       blue            19   male  mascu…
 2 C-3PO       167    75 <NA>       gold       yellow         112   none  mascu…
 3 R2-D2        96    32 <NA>       white, bl… red             33   none  mascu…
 4 Darth V…    202   136 none       white      yellow          41.9 male  mascu…
 5 Leia Or…    150    49 brown      light      brown           19   fema… femin…
 6 Owen La…    178   120 brown, gr… light      blue            52   male  mascu…
 7 Beru Wh…    165    75 brown      light      blue            47   fema… femin…
 8 R5-D4        97    32 <NA>       white, red red             NA   none  mascu…
 9 Biggs D…    183    84 black      light      brown           24   male  mascu…
10 Obi-Wan…    182    77 auburn, w… fair       blue-gray       57   male  mascu…
# ℹ 77 more rows
# ℹ 6 more variables: homeworld <chr>, species <chr>, films <list>,
#   vehicles <list>, starships <list>, height_m <dbl>

Modify columns: mutate()

datos |> modificar(nueva = funcion())

starwars |> mutate(new = function())

In addition, with optional arguments as .before or .after we can relocate the modified column

starwars |> 
  mutate(height_m = height / 100,
         IMC = mass / (height_m^2), .before = name)

# A tibble: 87 × 16
   height_m   IMC name   height  mass hair_color skin_color eye_color birth_year
      <dbl> <dbl> <chr>   <int> <dbl> <chr>      <chr>      <chr>          <dbl>
 1     1.72  26.0 Luke …    172    77 blond      fair       blue            19  
 2     1.67  26.9 C-3PO     167    75 <NA>       gold       yellow         112  
 3     0.96  34.7 R2-D2      96    32 <NA>       white, bl… red             33  
 4     2.02  33.3 Darth…    202   136 none       white      yellow          41.9
 5     1.5   21.8 Leia …    150    49 brown      light      brown           19  
 6     1.78  37.9 Owen …    178   120 brown, gr… light      blue            52  
 7     1.65  27.5 Beru …    165    75 brown      light      blue            47  
 8     0.97  34.0 R5-D4      97    32 <NA>       white, red red             NA  
 9     1.83  25.1 Biggs…    183    84 black      light      brown           24  
10     1.82  23.2 Obi-W…    182    77 auburn, w… fair       blue-gray       57  
# ℹ 77 more rows
# ℹ 7 more variables: sex <chr>, gender <chr>, homeworld <chr>, species <chr>,
#   films <list>, vehicles <list>, starships <list>

Modify columns: mutate()

datos |> modificar(nueva = funcion())

starwars |> mutate(new = function())

Important…

When we apply mutate(), we must remember that the operations are performed in a vectorial way, element by element, so the function we use inside must return a vector of equal length. Otherwise, it will return a constant

starwars |> 
  mutate(cte = mean(mass, na.rm = TRUE), .before = name)

# A tibble: 87 × 15
     cte name      height  mass hair_color skin_color eye_color birth_year sex  
   <dbl> <chr>      <int> <dbl> <chr>      <chr>      <chr>          <dbl> <chr>
 1  97.3 Luke Sky…    172    77 blond      fair       blue            19   male 
 2  97.3 C-3PO        167    75 <NA>       gold       yellow         112   none 
 3  97.3 R2-D2         96    32 <NA>       white, bl… red             33   none 
 4  97.3 Darth Va…    202   136 none       white      yellow          41.9 male 
 5  97.3 Leia Org…    150    49 brown      light      brown           19   fema…
 6  97.3 Owen Lars    178   120 brown, gr… light      blue            52   male 
 7  97.3 Beru Whi…    165    75 brown      light      blue            47   fema…
 8  97.3 R5-D4         97    32 <NA>       white, red red             NA   none 
 9  97.3 Biggs Da…    183    84 black      light      brown           24   male 
10  97.3 Obi-Wan …    182    77 auburn, w… fair       blue-gray       57   male 
# ℹ 77 more rows
# ℹ 6 more variables: gender <chr>, homeworld <chr>, species <chr>,
#   films <list>, vehicles <list>, starships <list>

Recat: if_else()

We can also combine mutate() with the if_else() control expression to recategorize the variable: if a condition is verified, it does the first option, otherwise the second one.

starwars |> 
  mutate(human = if_else(species == "Human", "Human", "Not Human"),
         .after = name) |> 
  select(name:mass)

# A tibble: 87 × 4
   name               human     height  mass
   <chr>              <chr>      <int> <dbl>
 1 Luke Skywalker     Human        172    77
 2 C-3PO              Not Human    167    75
 3 R2-D2              Not Human     96    32
 4 Darth Vader        Human        202   136
 5 Leia Organa        Human        150    49
 6 Owen Lars          Human        178   120
 7 Beru Whitesun lars Human        165    75
 8 R5-D4              Not Human     97    32
 9 Biggs Darklighter  Human        183    84
10 Obi-Wan Kenobi     Human        182    77
# ℹ 77 more rows

Recat: case_when()

For more complex categorizations we have case_when(), for example, to create a category of characters based on their height.

starwars |> 
  drop_na(height) |> 
  mutate(altura = case_when(is.na(height) ~ NA,
                            height < 120 ~ "tiny",
                            height < 160 ~ "short",
                            height < 180 ~ "normal",
                            height < 200 ~ "tall",
                            TRUE ~ "gigant"), .before = name)

# A tibble: 81 × 15
   altura name     height  mass hair_color skin_color eye_color birth_year sex  
   <chr>  <chr>     <int> <dbl> <chr>      <chr>      <chr>          <dbl> <chr>
 1 normal Luke Sk…    172    77 blond      fair       blue            19   male 
 2 normal C-3PO       167    75 <NA>       gold       yellow         112   none 
 3 tiny   R2-D2        96    32 <NA>       white, bl… red             33   none 
 4 gigant Darth V…    202   136 none       white      yellow          41.9 male 
 5 short  Leia Or…    150    49 brown      light      brown           19   fema…
 6 normal Owen La…    178   120 brown, gr… light      blue            52   male 
 7 normal Beru Wh…    165    75 brown      light      blue            47   fema…
 8 tiny   R5-D4        97    32 <NA>       white, red red             NA   none 
 9 tall   Biggs D…    183    84 black      light      brown           24   male 
10 tall   Obi-Wan…    182    77 auburn, w… fair       blue-gray       57   male 
# ℹ 71 more rows
# ℹ 6 more variables: gender <chr>, homeworld <chr>, species <chr>,
#   films <list>, vehicles <list>, starships <list>
…
